# 3ds Max Wavefront OBJ Exporter v0.97b - (c)2007 guruware
# File Created: 27.05.2016 23:51:27

mtllib tree.mtl

#
# object Box001
#

v  -0.4876 2.1781 0.4776
v  -0.5906 2.1126 0.1931
v  -0.1969 1.8107 0.1703
v  -0.1548 2.0258 0.5689
v  0.1969 1.8585 0.1916
v  0.2422 2.0466 0.5906
v  0.6016 2.0827 0.2081
v  0.4943 2.1686 0.5042
v  -0.5906 2.0962 -0.2339
v  -0.1969 1.8266 -0.2335
v  0.1969 1.8425 -0.1698
v  0.5906 2.0361 -0.1701
v  -0.4618 2.1445 -0.4599
v  -0.1969 2.0293 -0.6055
v  0.1969 2.0346 -0.5683
v  0.5256 2.1760 -0.5175
v  -0.4696 3.1206 0.4563
v  -0.1969 3.2818 0.5795
v  -0.2374 3.4277 0.1969
v  -0.5818 3.1912 0.1894
v  0.1859 3.2865 0.5906
v  0.1558 3.4523 0.1969
v  0.4887 3.1063 0.4884
v  0.5378 3.3036 0.1894
v  -0.1969 3.4288 -0.2335
v  -0.4936 3.2146 -0.2123
v  0.1969 3.4411 -0.1538
v  0.5906 3.2605 -0.1804
v  -0.1969 3.2605 -0.5205
v  -0.4671 3.0951 -0.5040
v  0.2422 3.2439 -0.5736
v  0.4915 3.0846 -0.4367
v  -0.1969 2.4379 0.7729
v  -0.5906 2.4176 0.5939
v  0.1820 2.4965 0.8267
v  0.5906 2.4777 0.5751
v  -0.2225 2.8347 0.8154
v  -0.5657 2.8572 0.5742
v  0.1898 2.8175 0.8267
v  0.5906 2.8413 0.6114
v  0.7473 2.4482 0.2234
v  0.7779 2.4751 -0.1698
v  0.6129 2.5064 -0.5683
v  0.7586 2.9547 0.1969
v  0.7779 2.8521 -0.1969
v  0.5455 2.8200 -0.5365
v  0.2384 2.4462 -0.8600
v  -0.1969 2.4007 -0.7750
v  -0.5906 2.4857 -0.6268
v  0.1969 2.8891 -0.8219
v  -0.1811 2.8479 -0.7921
v  -0.5906 2.8944 -0.5736
v  -0.7849 2.4890 -0.1969
v  -0.8037 2.4327 0.1969
v  -0.8150 2.8572 -0.1592
v  -0.8187 2.7821 0.1756
# 56 vertices

vn -0.5147 -0.7519 0.4119
vn -0.5787 -0.7933 0.1893
vn -0.2588 -0.9423 0.2122
vn -0.1952 -0.8623 0.4673
vn 0.2654 -0.9355 0.2334
vn 0.2669 -0.8752 0.4035
vn 0.4786 -0.8472 0.2307
vn 0.5069 -0.7612 0.4045
vn -0.5645 -0.8061 -0.1773
vn -0.2533 -0.9357 -0.2457
vn 0.2633 -0.9459 -0.1894
vn 0.4473 -0.8786 -0.1672
vn -0.5552 -0.6904 -0.4639
vn -0.2296 -0.8500 -0.4742
vn 0.2491 -0.8666 -0.4323
vn 0.4085 -0.8203 -0.4003
vn -0.5543 0.7404 0.3803
vn -0.2921 0.8788 0.3773
vn -0.3317 0.9276 0.1721
vn -0.5650 0.8050 0.1810
vn 0.2295 0.8761 0.4240
vn 0.1486 0.9743 0.1692
vn 0.5596 0.6466 0.5185
vn 0.4183 0.8897 0.1830
vn -0.2818 0.9227 -0.2630
vn -0.5659 0.7905 -0.2342
vn 0.2288 0.9516 -0.2050
vn 0.3549 0.8624 -0.3609
vn -0.2960 0.8338 -0.4661
vn -0.5018 0.7836 -0.3663
vn 0.3521 0.8533 -0.3846
vn 0.4791 0.7534 -0.4505
vn -0.3754 -0.4805 0.7926
vn -0.2076 -0.4582 0.8643
vn -0.2353 -0.2876 0.9284
vn -0.4293 -0.2802 0.8586
vn 0.2217 -0.4230 0.8786
vn 0.1859 -0.2079 0.9603
vn 0.4448 -0.3296 0.8328
vn 0.4985 -0.2186 0.8388
vn -0.2735 0.1920 0.9425
vn -0.5618 0.2687 0.7824
vn 0.2157 0.2058 0.9545
vn 0.4651 0.2295 0.8550
vn -0.2621 0.4790 0.8378
vn -0.5842 0.4994 0.6398
vn 0.2148 0.4467 0.8685
vn 0.4460 0.4469 0.7755
vn 0.8423 -0.3541 0.4064
vn 0.9034 -0.3767 0.2047
vn 0.9513 -0.1941 0.2393
vn 0.8993 -0.1715 0.4022
vn 0.9161 -0.3704 -0.1535
vn 0.9676 -0.1706 -0.1860
vn 0.9147 -0.2857 -0.2859
vn 0.9302 -0.0371 -0.3652
vn 0.9353 0.2774 0.2196
vn 0.8941 0.1756 0.4121
vn 0.9408 0.1750 -0.2902
vn 0.8339 0.2244 -0.5042
vn 0.8183 0.5245 0.2351
vn 0.7448 0.4942 0.4484
vn 0.8623 0.4534 -0.2258
vn 0.7538 0.3645 -0.5467
vn 0.4930 -0.4326 -0.7549
vn 0.1550 -0.5367 -0.8294
vn 0.2378 -0.2206 -0.9459
vn 0.6356 -0.0357 -0.7712
vn -0.1894 -0.4519 -0.8717
vn -0.2557 -0.2487 -0.9342
vn -0.5738 -0.5242 -0.6292
vn -0.4059 -0.1145 -0.9067
vn 0.2490 0.3331 -0.9094
vn 0.6382 0.2936 -0.7117
vn -0.2807 0.2511 -0.9263
vn -0.3958 0.2751 -0.8762
vn 0.2864 0.5226 -0.8030
vn 0.6209 0.3843 -0.6832
vn -0.2166 0.5407 -0.8128
vn -0.3602 0.5006 -0.7872
vn -0.7979 -0.4135 -0.4387
vn -0.8507 -0.4247 -0.3097
vn -0.9400 -0.2326 -0.2495
vn -0.8798 -0.2251 -0.4187
vn -0.8125 -0.5447 0.2079
vn -0.9389 -0.2672 0.2169
vn -0.7596 -0.5176 0.3939
vn -0.8622 -0.2209 0.4558
vn -0.9353 0.2947 -0.1959
vn -0.8430 0.3419 -0.4152
vn -0.9475 0.1933 0.2547
vn -0.8433 0.2701 0.4647
vn -0.7450 0.6244 -0.2347
vn -0.7611 0.5732 -0.3038
vn -0.8185 0.5380 0.2015
vn -0.7826 0.4535 0.4266
# 96 vertex normals

vt 1.0000 0.0000 0.0000
vt 1.0000 0.3333 0.0000
vt 0.6667 0.3333 0.0000
vt 0.6667 0.0000 0.0000
vt 0.3333 0.3333 0.0000
vt 0.3333 0.0000 0.0000
vt 0.0000 0.3333 0.0000
vt 0.0000 0.0000 0.0000
vt 1.0000 0.6667 0.0000
vt 0.6667 0.6667 0.0000
vt 0.3333 0.6667 0.0000
vt 0.0000 0.6667 0.0000
vt 1.0000 1.0000 0.0000
vt 0.6667 1.0000 0.0000
vt 0.3333 1.0000 0.0000
vt 0.0000 1.0000 0.0000
# 16 texture coords

g Box001
usemtl wire_113135006
s 2
f 1/1/1 2/2/2 3/3/3 
f 3/3/3 4/4/4 1/1/1 
f 4/4/4 3/3/3 5/5/5 
f 5/5/5 6/6/6 4/4/4 
f 6/6/6 5/5/5 7/7/7 
f 7/7/7 8/8/8 6/6/6 
f 2/2/2 9/9/9 10/10/10 
f 10/10/10 3/3/3 2/2/2 
f 3/3/3 10/10/10 11/11/11 
f 11/11/11 5/5/5 3/3/3 
f 5/5/5 11/11/11 12/12/12 
f 12/12/12 7/7/7 5/5/5 
f 9/9/9 13/13/13 14/14/14 
f 14/14/14 10/10/10 9/9/9 
f 10/10/10 14/14/14 15/15/15 
f 15/15/15 11/11/11 10/10/10 
f 11/11/11 15/15/15 16/16/16 
f 16/16/16 12/12/12 11/11/11 
s 4
f 17/8/17 18/6/18 19/5/19 
f 19/5/19 20/7/20 17/8/17 
f 18/6/18 21/4/21 22/3/22 
f 22/3/22 19/5/19 18/6/18 
f 21/4/21 23/1/23 24/2/24 
f 24/2/24 22/3/22 21/4/21 
f 20/7/20 19/5/19 25/11/25 
f 25/11/25 26/12/26 20/7/20 
f 19/5/19 22/3/22 27/10/27 
f 27/10/27 25/11/25 19/5/19 
f 22/3/22 24/2/24 28/9/28 
f 28/9/28 27/10/27 22/3/22 
f 26/12/26 25/11/25 29/15/29 
f 29/15/29 30/16/30 26/12/26 
f 25/11/25 27/10/27 31/14/31 
f 31/14/31 29/15/29 25/11/25 
f 27/10/27 28/9/28 32/13/32 
f 32/13/32 31/14/31 27/10/27 
s 8
f 1/8/33 4/6/34 33/5/35 
f 33/5/35 34/7/36 1/8/33 
f 4/6/34 6/4/37 35/3/38 
f 35/3/38 33/5/35 4/6/34 
f 6/4/37 8/1/39 36/2/40 
f 36/2/40 35/3/38 6/4/37 
f 34/7/36 33/5/35 37/11/41 
f 37/11/41 38/12/42 34/7/36 
f 33/5/35 35/3/38 39/10/43 
f 39/10/43 37/11/41 33/5/35 
f 35/3/38 36/2/40 40/9/44 
f 40/9/44 39/10/43 35/3/38 
f 38/12/42 37/11/41 18/15/45 
f 18/15/45 17/16/46 38/12/42 
f 37/11/41 39/10/43 21/14/47 
f 21/14/47 18/15/45 37/11/41 
f 39/10/43 40/9/44 23/13/48 
f 23/13/48 21/14/47 39/10/43 
s 16
f 8/8/49 7/6/50 41/5/51 
f 41/5/51 36/7/52 8/8/49 
f 7/6/50 12/4/53 42/3/54 
f 42/3/54 41/5/51 7/6/50 
f 12/4/53 16/1/55 43/2/56 
f 43/2/56 42/3/54 12/4/53 
f 36/7/52 41/5/51 44/11/57 
f 44/11/57 40/12/58 36/7/52 
f 41/5/51 42/3/54 45/10/59 
f 45/10/59 44/11/57 41/5/51 
f 42/3/54 43/2/56 46/9/60 
f 46/9/60 45/10/59 42/3/54 
f 40/12/58 44/11/57 24/15/61 
f 24/15/61 23/16/62 40/12/58 
f 44/11/57 45/10/59 28/14/63 
f 28/14/63 24/15/61 44/11/57 
f 45/10/59 46/9/60 32/13/64 
f 32/13/64 28/14/63 45/10/59 
s 32
f 16/8/65 15/6/66 47/5/67 
f 47/5/67 43/7/68 16/8/65 
f 15/6/66 14/4/69 48/3/70 
f 48/3/70 47/5/67 15/6/66 
f 14/4/69 13/1/71 49/2/72 
f 49/2/72 48/3/70 14/4/69 
f 43/7/68 47/5/67 50/11/73 
f 50/11/73 46/12/74 43/7/68 
f 47/5/67 48/3/70 51/10/75 
f 51/10/75 50/11/73 47/5/67 
f 48/3/70 49/2/72 52/9/76 
f 52/9/76 51/10/75 48/3/70 
f 46/12/74 50/11/73 31/15/77 
f 31/15/77 32/16/78 46/12/74 
f 50/11/73 51/10/75 29/14/79 
f 29/14/79 31/15/77 50/11/73 
f 51/10/75 52/9/76 30/13/80 
f 30/13/80 29/14/79 51/10/75 
s 64
f 13/8/81 9/6/82 53/5/83 
f 53/5/83 49/7/84 13/8/81 
f 9/6/82 2/4/85 54/3/86 
f 54/3/86 53/5/83 9/6/82 
f 2/4/85 1/1/87 34/2/88 
f 34/2/88 54/3/86 2/4/85 
f 49/7/84 53/5/83 55/11/89 
f 55/11/89 52/12/90 49/7/84 
f 53/5/83 54/3/86 56/10/91 
f 56/10/91 55/11/89 53/5/83 
f 54/3/86 34/2/88 38/9/92 
f 38/9/92 56/10/91 54/3/86 
f 52/12/90 55/11/89 26/15/93 
f 26/15/93 30/16/94 52/12/90 
f 55/11/89 56/10/91 20/14/95 
f 20/14/95 26/15/93 55/11/89 
f 56/10/91 38/9/92 17/13/96 
f 17/13/96 20/14/95 56/10/91 
# 108 faces

#
# object Cylinder001
#

v  -0.0150 0.0153 0.0135
v  0.0399 0.0153 -0.1539
v  0.1509 0.0153 0.0397
v  -0.1578 0.0153 -0.0905
v  -0.1513 0.0153 0.1095
v  0.0225 0.0153 0.1766
v  0.0303 0.3443 -0.1529
v  0.1427 0.3443 0.0290
v  -0.1451 0.3443 -0.0933
v  -0.1530 0.3443 0.1115
v  0.0413 0.3443 0.1560
v  0.0481 0.6733 -0.1471
v  0.1548 0.6733 0.0548
v  -0.1584 0.6733 -0.0848
v  -0.1514 0.6733 0.1140
v  0.0187 0.6733 0.1635
v  0.0205 1.0023 -0.1444
v  0.1486 1.0023 0.0189
v  -0.1572 1.0023 -0.0777
v  -0.1497 1.0023 0.1115
v  0.0093 1.0023 0.1710
v  0.0449 1.3313 -0.1376
v  0.1361 1.3313 0.0473
v  -0.1542 1.3313 -0.0817
v  -0.1546 1.3313 0.1144
v  0.0488 1.3313 0.1597
v  0.0262 1.6603 -0.1381
v  0.1361 1.6603 0.0097
v  -0.1449 1.6603 -0.0910
v  -0.1536 1.6603 0.1101
v  0.0300 1.6603 0.1579
v  0.0394 1.9893 -0.1481
v  0.1554 1.9893 0.0332
v  -0.1507 1.9893 -0.0866
v  -0.1488 1.9893 0.1140
v  0.0394 1.9893 0.1729
v  -0.0150 1.9893 0.0135
# 37 vertices

vn 0.0000 -1.0000 -0.0000
vn 0.9981 0.0000 0.0609
vn 0.2953 0.0000 -0.9554
vn 0.9998 0.0000 -0.0197
vn 0.3179 0.0000 -0.9481
vn -0.8016 0.0000 -0.5978
vn -0.8156 0.0000 -0.5786
vn -0.8098 0.0000 0.5867
vn -0.8090 0.0000 0.5878
vn 0.3324 0.0000 0.9432
vn 0.2890 0.0000 0.9573
vn 0.3261 0.0000 -0.9453
vn 0.9977 0.0000 0.0682
vn -0.8121 0.0000 -0.5835
vn -0.8079 0.0000 0.5893
vn 0.3096 0.0000 0.9509
vn 0.2887 0.0000 -0.9574
vn 0.9994 0.0000 -0.0354
vn -0.8129 0.0000 -0.5823
vn 0.2745 0.0000 0.9616
vn 0.3267 0.0000 -0.9451
vn 0.9991 0.0000 0.0425
vn -0.8149 0.0000 -0.5796
vn -0.8084 0.0000 0.5887
vn 0.3272 0.0000 0.9450
vn 0.2991 0.0000 -0.9542
vn 1.0000 0.0000 -0.0046
vn -0.8035 0.0000 -0.5953
vn -0.8113 0.0000 0.5846
vn 0.3077 0.0000 0.9515
vn 0.3126 0.0000 -0.9499
vn 0.9997 0.0000 0.0260
vn -0.8136 0.0000 -0.5814
vn -0.8051 0.0000 0.5931
vn 0.3133 0.0000 0.9497
vn 0.0000 1.0000 -0.0000
# 36 vertex normals

vt 0.5000 0.0000 0.0000
vt 0.9500 0.0000 1.0000
vt 0.7500 0.0000 1.0000
vt 0.1500 0.0000 1.0000
vt -0.0500 0.0000 1.0000
vt 0.3500 0.0000 1.0000
vt 0.5500 0.0000 1.0000
vt 0.9500 0.1667 1.0000
vt 0.7500 0.1667 1.0000
vt 0.1500 0.1667 1.0000
vt -0.0500 0.1667 1.0000
vt 0.3500 0.1667 1.0000
vt 0.5500 0.1667 1.0000
vt 0.9500 0.3333 1.0000
vt 0.7500 0.3333 1.0000
vt 0.1500 0.3333 1.0000
vt -0.0500 0.3333 1.0000
vt 0.3500 0.3333 1.0000
vt 0.5500 0.3333 1.0000
vt 0.9500 0.5000 1.0000
vt 0.7500 0.5000 1.0000
vt 0.1500 0.5000 1.0000
vt -0.0500 0.5000 1.0000
vt 0.3500 0.5000 1.0000
vt 0.5500 0.5000 1.0000
vt 0.9500 0.6667 1.0000
vt 0.7500 0.6667 1.0000
vt 0.1500 0.6667 1.0000
vt -0.0500 0.6667 1.0000
vt 0.3500 0.6667 1.0000
vt 0.5500 0.6667 1.0000
vt 0.9500 0.8333 1.0000
vt 0.7500 0.8333 1.0000
vt 0.1500 0.8333 1.0000
vt -0.0500 0.8333 1.0000
vt 0.3500 0.8333 1.0000
vt 0.5500 0.8333 1.0000
vt 0.9500 1.0000 1.0000
vt 0.7500 1.0000 1.0000
vt 0.1500 1.0000 1.0000
vt -0.0500 1.0000 1.0000
vt 0.3500 1.0000 1.0000
vt 0.5500 1.0000 1.0000
vt 0.5000 1.0000 0.0000
# 44 texture coords

g Cylinder001
usemtl wire_036010007
s 1
f 57/17/97 58/18/97 59/19/97 
f 57/17/97 60/20/97 58/21/97 
f 57/17/97 61/22/97 60/20/97 
f 57/17/97 62/23/97 61/22/97 
f 57/17/97 59/19/97 62/23/97 
s 8
f 59/19/98 63/24/99 64/25/100 
f 59/19/98 58/18/101 63/24/99 
f 58/21/101 65/26/102 63/27/99 
f 58/21/101 60/20/103 65/26/102 
f 60/20/103 66/28/104 65/26/102 
f 60/20/103 61/22/105 66/28/104 
f 61/22/105 67/29/106 66/28/104 
f 61/22/105 62/23/107 67/29/106 
f 62/23/107 64/25/100 67/29/106 
f 62/23/107 59/19/98 64/25/100 
f 64/25/100 68/30/108 69/31/109 
f 64/25/100 63/24/99 68/30/108 
f 63/27/99 70/32/110 68/33/108 
f 63/27/99 65/26/102 70/32/110 
f 65/26/102 71/34/111 70/32/110 
f 65/26/102 66/28/104 71/34/111 
f 66/28/104 72/35/112 71/34/111 
f 66/28/104 67/29/106 72/35/112 
f 67/29/106 69/31/109 72/35/112 
f 67/29/106 64/25/100 69/31/109 
f 69/31/109 73/36/113 74/37/114 
f 69/31/109 68/30/108 73/36/113 
f 68/33/108 75/38/115 73/39/113 
f 68/33/108 70/32/110 75/38/115 
f 70/32/110 76/40/105 75/38/115 
f 70/32/110 71/34/111 76/40/105 
f 71/34/111 77/41/116 76/40/105 
f 71/34/111 72/35/112 77/41/116 
f 72/35/112 74/37/114 77/41/116 
f 72/35/112 69/31/109 74/37/114 
f 74/37/114 78/42/117 79/43/118 
f 74/37/114 73/36/113 78/42/117 
f 73/39/113 80/44/119 78/45/117 
f 73/39/113 75/38/115 80/44/119 
f 75/38/115 81/46/120 80/44/119 
f 75/38/115 76/40/105 81/46/120 
f 76/40/105 82/47/121 81/46/120 
f 76/40/105 77/41/116 82/47/121 
f 77/41/116 79/43/118 82/47/121 
f 77/41/116 74/37/114 79/43/118 
f 79/43/118 83/48/122 84/49/123 
f 79/43/118 78/42/117 83/48/122 
f 78/45/117 85/50/124 83/51/122 
f 78/45/117 80/44/119 85/50/124 
f 80/44/119 86/52/125 85/50/124 
f 80/44/119 81/46/120 86/52/125 
f 81/46/120 87/53/126 86/52/125 
f 81/46/120 82/47/121 87/53/126 
f 82/47/121 84/49/123 87/53/126 
f 82/47/121 79/43/118 84/49/123 
f 84/49/123 88/54/127 89/55/128 
f 84/49/123 83/48/122 88/54/127 
f 83/51/122 90/56/129 88/57/127 
f 83/51/122 85/50/124 90/56/129 
f 85/50/124 91/58/130 90/56/129 
f 85/50/124 86/52/125 91/58/130 
f 86/52/125 92/59/131 91/58/130 
f 86/52/125 87/53/126 92/59/131 
f 87/53/126 89/55/128 92/59/131 
f 87/53/126 84/49/123 89/55/128 
s 1
f 93/60/132 89/55/132 88/54/132 
f 93/60/132 88/57/132 90/56/132 
f 93/60/132 90/56/132 91/58/132 
f 93/60/132 91/58/132 92/59/132 
f 93/60/132 92/59/132 89/55/132 
# 70 faces

